Sampling distributions and the Hartford corrections data
…
More complicated filtering

I wonder about how Osborn and Enfield look. Lets filter it.

correction %>%
  filter(name == "OSBORN CI" | name == "ENFIELD CI")

## # A tibble: 21,655 x 5
##    Date       name       accused sentenced total
##    <date>     <chr>        <int>     <int> <int>
##  1 1988-10-01 ENFIELD CI       0       447   447
##  2 1988-10-01 OSBORN CI       12      1407  1419
##  3 1988-10-02 ENFIELD CI       0       447   447
##  4 1988-10-02 OSBORN CI       12      1407  1419
##  5 1988-10-03 ENFIELD CI       0       447   447
##  6 1988-10-03 OSBORN CI       12      1407  1419
##  7 1988-10-04 ENFIELD CI       0       470   470
##  8 1988-10-04 OSBORN CI       12      1399  1411
##  9 1988-10-05 ENFIELD CI       0       470   470
## 10 1988-10-05 OSBORN CI       11      1400  1411
## # ... with 21,645 more rows
…
