Los Angeles Local Data
…
load("Data/Arrests.rda")

Arrests %>%
  group_by(charge_gp) %>%
  summarise(count = n()) %>%
  arrange(desc(count))

## # A tibble: 28 x 2
##    charge_gp                       count
##    <chr>                           <int>
##  1 Miscellaneous Other Violations 219858
##  2 Narcotic Drug Laws             147508
##  3 Drunkeness                     110694
##  4 Driving Under Influence        107769
##  5 <NA>                            74597
##  6 Aggravated Assault              72757
##  7 Larceny                         63603
##  8 Other Assaults                  52359
##  9 Moving Traffic Violations       48413
## 10 Liquor Laws                     46855
## # ... with 18 more rows
…
